%YAML 1.1
%TAG !u! tag:unity3d.com,2011:
--- !u!114 &11400000
MonoBehaviour:
  m_ObjectHideFlags: 0
  m_CorrespondingSourceObject: {fileID: 0}
  m_PrefabInstance: {fileID: 0}
  m_PrefabAsset: {fileID: 0}
  m_GameObject: {fileID: 0}
  m_Enabled: 1
  m_EditorHideFlags: 0
  m_Script: {fileID: 11500000, guid: 4d2521a2fb9f7e04cbff87aab385900c, type: 3}
  m_Name: float_beat
  m_EditorClassIdentifier: 
  debug: 0
  reset: 1
  defaultValue: 0
  value: 0.19836736
  OnValueChanged:
    m_PersistentCalls:
      m_Calls: []
