%YAML 1.1
%TAG !u! tag:unity3d.com,2011:
--- !u!114 &11400000
MonoBehaviour:
  m_ObjectHideFlags: 0
  m_CorrespondingSourceObject: {fileID: 0}
  m_PrefabInstance: {fileID: 0}
  m_PrefabAsset: {fileID: 0}
  m_GameObject: {fileID: 0}
  m_Enabled: 1
  m_EditorHideFlags: 0
  m_Script: {fileID: 11500000, guid: 51fe4f76dcba1054fb7ef5bf522b77b3, type: 3}
  m_Name: level_viva_la_vida
  m_EditorClassIdentifier: 
  clip: {fileID: 8300000, guid: c6343c0b781478b4d9e0823e56124e5a, type: 3}
  score: {fileID: 11400000, guid: 5633436f469ec28469a9536291bb5b1d, type: 2}
  correctRed: 10
  correctBlue: 10
  incorrectRed: -15
  incorrectBlue: -15
  forceRed: 80
  forceBlue: 100
  impactsRed: 2
  impactsBlue: 1
  speed: 20
  minSize: 0.35
  maxSize: 1.5
  delay: 0.01
  minAmount: 100
  maxAmount: 150
  OnLoad:
    m_PersistentCalls:
      m_Calls:
      - m_Target: {fileID: 11400000, guid: 1a736a45c70ae2e44b32f976d9b3b307, type: 2}
        m_TargetAssemblyTypeName: Antipixel.GameEvent, Assembly-CSharp
        m_MethodName: Invoke
        m_Mode: 1
        m_Arguments:
          m_ObjectArgument: {fileID: 0}
          m_ObjectArgumentAssemblyTypeName: UnityEngine.Object, UnityEngine
          m_IntArgument: 0
          m_FloatArgument: 0
          m_StringArgument: 
          m_BoolArgument: 0
        m_CallState: 2
  OnSave:
    m_PersistentCalls:
      m_Calls:
      - m_Target: {fileID: 11400000, guid: 8067ba8bb86361842ac2f98687470009, type: 2}
        m_TargetAssemblyTypeName: Antipixel.GameEvent, Assembly-CSharp
        m_MethodName: Invoke
        m_Mode: 1
        m_Arguments:
          m_ObjectArgument: {fileID: 0}
          m_ObjectArgumentAssemblyTypeName: UnityEngine.Object, UnityEngine
          m_IntArgument: 0
          m_FloatArgument: 0
          m_StringArgument: 
          m_BoolArgument: 0
        m_CallState: 2
