%YAML 1.1
%TAG !u! tag:unity3d.com,2011:
--- !u!162 &1
EditorUserSettings:
  m_ObjectHideFlags: 0
  serializedVersion: 4
  m_ConfigSettings:
    RecentlyUsedScenePath-0:
      value: 224247031146466b0416092e50024d0313191926630c233d22662e30e7ee312badbf78fce9332b25
      flags: 0
    RecentlyUsedScenePath-1:
      value: 224247031146466b0416092e50024d0313191926630c233d22662e30e7ee312badbe78fce9332b25
      flags: 0
    RecentlyUsedScenePath-2:
      value: 224247031146466b0416092e50024d0313191926630c233d22662e30e7ee312badb666a7f234362820
      flags: 0
    RecentlyUsedScenePath-3:
      value: 224247031146466b0416092e50024d0313191926630c233d22662e30e7ee312badb178fce9332b25
      flags: 0
    RecentlyUsedScenePath-4:
      value: 22424703114646680c031c2e1530103f061216121e68163c382e143dadb17a6bacb679cae8342b2e360ee33916712230fc1e1b04fa070f19220ff01e1dfa5e061fcc0cdc
      flags: 0
    RecentlyUsedScenePath-5:
      value: 224247031146467322202916196c6c1313191d39631b273d3d251800e1e53a3dacf238e0f323
      flags: 0
    RecentlyUsedScenePath-6:
      value: 22424703114646680e0b0227036c6c111b07142f1f2b233e2867083debf42d
      flags: 0
    RecentlyUsedScenePath-7:
      value: 224247031146466b1f010627133710231512162f3f6704352c3d5d00f6ef3928e7f578fce9332b25
      flags: 0
    RecentlyUsedScenePath-8:
      value: 22424703114646480e070a2b5d244a1e5b0719292767153328271820add33535f2eb33dae43f31397717e1351027
      flags: 0
    RecentlyUsedScenePath-9:
      value: 224247031146466b1f010627133710231512162f3f6735332827180ce0e5352cddf422e6ea2a3a2e7717e1351027
      flags: 0
    vcSharedLogLevel:
      value: 0d5e400f0650
      flags: 0
  m_VCAutomaticAdd: 1
  m_VCDebugCom: 0
  m_VCDebugCmd: 0
  m_VCDebugOut: 0
  m_SemanticMergeMode: 2
  m_VCShowFailedCheckout: 1
  m_VCOverwriteFailedCheckoutAssets: 1
  m_VCProjectOverlayIcons: 1
  m_VCHierarchyOverlayIcons: 1
  m_VCOtherOverlayIcons: 1
  m_VCAllowAsyncUpdate: 1
